<svg width="55" height="27" viewBox="0 0 55 27" fill="none" xmlns="http://www.w3.org/2000/svg">
<path d="M22.6147 22.2159C22.3744 22.1461 22.1992 22.0605 22.0893 21.9592C21.9803 21.8569 21.9258 21.731 21.9258 21.5815C21.9258 21.4124 21.9924 21.2727 22.1258 21.1626C22.26 21.0514 22.4342 20.9958 22.6483 20.9958C22.7943 20.9958 22.9242 21.0244 23.038 21.0814C23.1528 21.1385 23.2414 21.2171 23.3037 21.3175C23.3669 21.4178 23.3985 21.5274 23.3985 21.6464H23.1168C23.1168 21.5166 23.076 21.4148 22.9942 21.3411C22.9125 21.2663 22.7972 21.2289 22.6483 21.2289C22.5101 21.2289 22.4021 21.2599 22.3243 21.3219C22.2474 21.3829 22.2089 21.4679 22.2089 21.5771C22.2089 21.6646 22.2454 21.7389 22.3184 21.7999C22.3924 21.8599 22.5174 21.9149 22.6935 21.9651C22.8706 22.0153 23.0088 22.0708 23.1081 22.1318C23.2083 22.1918 23.2822 22.2621 23.3299 22.3428C23.3786 22.4234 23.4029 22.5183 23.4029 22.6275C23.4029 22.8016 23.3358 22.9412 23.2015 23.0465C23.0672 23.1507 22.8877 23.2029 22.6629 23.2029C22.5169 23.2029 22.3807 23.1748 22.2542 23.1188C22.1277 23.0617 22.0299 22.984 21.9608 22.8857C21.8927 22.7873 21.8586 22.6757 21.8586 22.5508H22.1403C22.1403 22.6806 22.1875 22.7834 22.2819 22.8591C22.3773 22.9339 22.5043 22.9712 22.6629 22.9712C22.8108 22.9712 22.9242 22.9408 23.003 22.8798C23.0818 22.8188 23.1212 22.7357 23.1212 22.6305C23.1212 22.5252 23.0847 22.4441 23.0117 22.387C22.9388 22.329 22.8064 22.272 22.6147 22.2159Z" fill="#021244"/>
<path d="M25.4202 22.9417H26.4273V23.1734H25.1385V21.0254H25.4202V22.9417Z" fill="#021244"/>
<path d="M29.6605 22.1687C29.6605 22.3792 29.6255 22.5631 29.5554 22.7204C29.4853 22.8768 29.3861 22.9963 29.2576 23.0789C29.1292 23.1616 28.9793 23.2029 28.8081 23.2029C28.6407 23.2029 28.4923 23.1616 28.3629 23.0789C28.2335 22.9953 28.1328 22.8768 28.0608 22.7234C27.9897 22.569 27.9532 22.3905 27.9513 22.1879V22.033C27.9513 21.8264 27.9868 21.644 28.0578 21.4856C28.1289 21.3273 28.2291 21.2063 28.3585 21.1227C28.4889 21.0381 28.6378 20.9958 28.8052 20.9958C28.9754 20.9958 29.1253 21.0376 29.2547 21.1212C29.3851 21.2039 29.4853 21.3243 29.5554 21.4827C29.6255 21.6401 29.6605 21.8235 29.6605 22.033V22.1687ZM29.3817 22.03C29.3817 21.7753 29.3311 21.5801 29.2299 21.4443C29.1287 21.3076 28.9871 21.2393 28.8052 21.2393C28.6281 21.2393 28.4884 21.3076 28.3863 21.4443C28.2851 21.5801 28.233 21.7689 28.2301 22.0108V22.1687C28.2301 22.4156 28.2812 22.6098 28.3833 22.7514C28.4865 22.8921 28.6281 22.9624 28.8081 22.9624C28.9891 22.9624 29.1292 22.896 29.2284 22.7632C29.3277 22.6295 29.3788 22.4382 29.3817 22.1893V22.03Z" fill="#021244"/>
<path d="M33.025 22.8916C32.953 22.9958 32.8523 23.074 32.7229 23.1261C32.5944 23.1773 32.4446 23.2029 32.2733 23.2029C32.1001 23.2029 31.9464 23.162 31.8121 23.0804C31.6778 22.9978 31.5737 22.8808 31.4997 22.7293C31.4267 22.5778 31.3893 22.4023 31.3873 22.2026V22.0153C31.3873 21.6917 31.4618 21.4409 31.6106 21.2629C31.7605 21.0849 31.9707 20.9958 32.2412 20.9958C32.4631 20.9958 32.6416 21.0534 32.7769 21.1685C32.9121 21.2825 32.9948 21.4448 33.025 21.6553H32.7448C32.6922 21.3711 32.5249 21.2289 32.2427 21.2289C32.0549 21.2289 31.9123 21.2958 31.815 21.4296C31.7187 21.5624 31.67 21.7551 31.669 22.0079V22.1834C31.669 22.4244 31.7235 22.6162 31.8325 22.7588C31.9415 22.9004 32.0889 22.9712 32.2748 22.9712C32.3799 22.9712 32.4718 22.9594 32.5506 22.9358C32.6295 22.9122 32.6947 22.8724 32.7462 22.8163V22.3339H32.2543V22.1038H33.025V22.8916Z" fill="#021244"/>
<path d="M36.0421 22.6127H35.1518L34.9518 23.1734H34.6628L35.4744 21.0254H35.7196L36.5326 23.1734H36.245L36.0421 22.6127ZM35.2364 22.3797H35.9589L35.597 21.375L35.2364 22.3797Z" fill="#021244"/>
<path d="M39.827 23.1734H39.5453L38.4754 21.5181V23.1734H38.1937V21.0254H38.4754L39.5482 22.688V21.0254H39.827V23.1734Z" fill="#021244"/>
<path d="M45.4497 23.1734H45.168V22.1805H44.0966V23.1734H43.8164V21.0254H44.0966V21.9489H45.168V21.0254H45.4497V23.1734Z" fill="#021244"/>
<path d="M48.5237 22.1805H47.6027V22.9417H48.6726V23.1734H47.3225V21.0254H48.658V21.2584H47.6027V21.9489H48.5237V22.1805Z" fill="#021244"/>
<path d="M51.176 22.3044H50.6768V23.1734H50.3951V21.0254H51.0986C51.338 21.0254 51.5219 21.0804 51.6503 21.1906C51.7798 21.3007 51.8445 21.4611 51.8445 21.6715C51.8445 21.8053 51.8085 21.9218 51.7365 22.0212C51.6654 22.1205 51.5662 22.1948 51.4387 22.2439L51.9379 23.1556V23.1734H51.6372L51.176 22.3044ZM50.6768 22.0728H51.1074C51.2465 22.0728 51.357 22.0364 51.4387 21.9636C51.5214 21.8908 51.5628 21.7935 51.5628 21.6715C51.5628 21.5388 51.5234 21.437 51.4445 21.3661C51.3667 21.2953 51.2538 21.2594 51.1059 21.2584H50.6768V22.0728Z" fill="#021244"/>
<path d="M54.8149 22.1805H53.8939V22.9417H54.9638V23.1734H53.6136V21.0254H54.9492V21.2584H53.8939V21.9489H54.8149V22.1805Z" fill="#021244"/>
<path d="M53.8358 15.3029C53.8358 11.5288 48.167 13.3678 48.167 9.21713C48.167 6.73556 50.2001 6.12256 51.7879 6.12256C53.0715 6.12256 54.6594 6.55092 54.6594 7.15654C54.6594 7.37811 54.4739 7.78432 54.1623 7.78432C53.8358 7.78432 53.2719 7.13439 51.7731 7.13439C50.5117 7.13439 49.2948 7.5923 49.2948 9.10635C49.2948 12.2674 54.9636 10.4801 54.9636 15.1921C54.9636 17.6072 53.4574 18.6929 51.3575 18.6929C49.1761 18.7003 47.8628 17.4743 47.8628 16.8612C47.8628 16.588 48.1151 16.2335 48.3748 16.2335C48.82 16.2335 49.1613 17.6441 51.2908 17.6441C52.8786 17.6441 53.8358 16.8465 53.8358 15.3029Z" fill="#021244"/>
<path d="M34.2369 7.16082C32.7174 7.16082 31.8132 7.97659 31.8132 9.75647V15.0442C31.8132 16.8166 32.7174 17.6547 34.2369 17.6547C35.7564 17.6547 36.6607 16.8166 36.6607 15.0442V13.0122H34.3778C34.1257 13.0122 33.9701 12.7748 33.9701 12.5153C33.9701 12.278 34.1257 12.0406 34.3778 12.0406H37.3797C37.6539 12.0406 37.7873 12.2483 37.7873 12.4856V15.0442C37.7873 17.7066 36.2382 18.6929 34.2369 18.6929C32.2431 18.6929 30.6865 17.7066 30.6865 15.0442V9.75647C30.6865 7.1089 32.2357 6.12256 34.2147 6.12256C36.4013 6.12256 37.7799 7.36847 37.7799 9.07418C37.7799 9.51915 37.5576 9.65264 37.2166 9.65264C36.9275 9.65264 36.6681 9.53398 36.6533 9.2225C36.505 7.90985 35.7194 7.16082 34.2369 7.16082Z" fill="#021244"/>
<path d="M42.8734 7.16082C41.3539 7.16082 40.4496 7.97659 40.4496 9.75647V15.0442C40.4496 16.8166 41.3539 17.6547 42.8734 17.6547C44.3929 17.6547 45.2972 16.8166 45.2972 15.0442V13.0122H43.0142C42.7622 13.0122 42.6066 12.7748 42.6066 12.5153C42.6066 12.278 42.7622 12.0406 43.0142 12.0406H46.0161C46.2904 12.0406 46.4238 12.2483 46.4238 12.4856V15.0442C46.4238 17.7066 44.8747 18.6929 42.8734 18.6929C40.8795 18.6929 39.323 17.7066 39.323 15.0442V9.75647C39.323 7.1089 40.8721 6.12256 42.8512 6.12256C45.0377 6.12256 46.4164 7.36847 46.4164 9.07418C46.4164 9.51915 46.194 9.65264 45.8531 9.65264C45.564 9.65264 45.3046 9.53398 45.2898 9.2225C45.1415 7.90985 44.3558 7.16082 42.8734 7.16082Z" fill="#021244"/>
<path d="M23.2877 11.907H25.9974C26.2751 11.907 26.4327 12.1462 26.4327 12.4227C26.4327 12.6469 26.3126 12.886 25.9974 12.886H23.2877V17.6466H28.8122C29.0899 17.6466 29.2475 17.9007 29.2475 18.1772C29.2475 18.4164 29.1274 18.6929 28.8122 18.6929H22.6647C22.4019 18.6929 22.1467 18.536 22.1467 18.2445V6.55602C22.1467 6.26455 22.4019 6.12256 22.6647 6.12256H28.8122C29.1199 6.12256 29.2475 6.37666 29.2475 6.62328C29.2475 6.91474 29.0899 7.17632 28.8122 7.17632H23.2877V11.907Z" fill="#021244"/>
<path d="M14.2389 24.7535C10.8548 26.2013 6.51335 26.8594 3.62454 24.0461C2.56806 23.0178 1.883 21.6852 1.51984 20.262C0.93382 17.934 0.826522 15.4826 1.21445 13.1135C1.60237 10.7197 2.46076 8.40816 3.72359 6.33518C4.81308 4.55833 6.20796 2.66631 8.03204 1.58869C8.52727 1.29255 9.12979 1.04576 9.67454 0.996408C9.88088 0.979955 10.1945 0.988181 10.3183 1.00463C10.4256 1.02109 10.5329 1.04576 10.6402 1.07867C10.731 1.10335 10.8961 1.16093 10.8878 1.16093C11.3913 1.38304 11.6142 1.62159 12.0103 2.05758C12.9183 3.0694 13.6363 4.26219 14.3379 5.41385C16.0877 8.28477 17.8788 11.6986 17.755 15.1618C17.6889 16.9469 16.9791 18.4934 15.6502 19.6369C15.5842 19.6944 15.5182 19.752 15.4522 19.8014C15.4357 19.8096 15.3449 19.8836 15.3944 19.8507C15.4356 19.8178 15.3201 19.9001 15.3036 19.9165C15.1715 20.007 15.0395 20.1057 14.9074 20.188C13.8674 20.8625 12.6954 21.2739 11.4821 21.5371C10.0047 21.8579 8.22188 21.9155 7.03334 20.8296C6.09241 19.9741 5.72099 18.6662 5.6302 17.4405C5.47338 15.3757 5.94384 13.2698 6.90128 11.4354C7.46253 10.366 8.18886 9.33772 9.08852 8.52333C9.53422 8.12025 10.1698 7.66781 10.764 7.97218C11.3335 8.26832 11.7132 8.92641 12.0434 9.45288C12.5716 10.2755 13.0421 11.1392 13.463 12.0194C13.8839 12.8832 14.2884 13.9115 14.3296 14.8492C14.3544 15.3017 14.3131 15.6636 14.0738 16.0009C14.0985 15.968 13.9665 16.1161 13.9252 16.1572C13.8839 16.1901 13.7849 16.2641 13.6776 16.3135C13.5125 16.3957 13.2236 16.4616 13.0008 16.4862C12.1176 16.5685 11.2262 16.3464 10.3844 16.1078C9.77358 15.9351 9.50946 16.8893 10.1202 17.0621C11.4986 17.4487 13.6528 17.9752 14.7671 16.7166C15.5595 15.8281 15.3779 14.4955 15.0807 13.4426C14.6515 11.929 13.8509 10.4729 13.0256 9.14852C12.2167 7.85701 11.0942 6.30227 9.36915 7.13311C8.29616 7.65136 7.47904 8.72076 6.81874 9.67499C6.0759 10.7444 5.49814 11.9372 5.12672 13.1876C4.57372 15.0138 4.40039 17.0703 4.87086 18.9376C5.23402 20.3608 6.08416 21.6605 7.46253 22.2774C9.41867 23.1494 11.8453 22.6558 13.7519 21.8908C15.8236 21.06 17.5816 19.5793 18.341 17.4405C19.3727 14.5284 18.3575 11.2544 17.1442 8.56446C16.6324 7.43748 16.0464 6.35163 15.4191 5.29045C14.6846 4.06476 13.9252 2.81439 13.009 1.71208C12.1919 0.716719 11.2345 -0.0318604 9.88088 0.00104414C8.23838 0.0421749 6.79398 1.11157 5.67147 2.2221C3.78136 4.09766 2.32045 6.45034 1.34651 8.91818C0.389073 11.3449 -0.0731365 13.9773 0.0094009 16.585C0.0836846 18.7073 0.422088 20.9695 1.47857 22.8533C2.28743 24.3011 3.53375 25.5185 5.05244 26.2178C6.93429 27.0815 9.03074 27.1638 11.0447 26.7854C12.324 26.5468 13.5455 26.1191 14.7423 25.609C15.3201 25.354 14.8166 24.5067 14.2389 24.7535Z" fill="#90C156"/>
</svg>
